projecto/V4_working_PicoVersat_&_2Complemet_&_SUM_ALU_&_Multiply/xtop.vcd
$date
	Tue Jan  7 10:33:00 2020
$end
$version
	Icarus Verilog
$end
$timescale
	1ps
$end
$scope module xtop_tb $end
$var wire 8 ! Disp [7:0] $end
$var wire 4 " Disp_sel [3:0] $end
$var wire 32 # r0 [31:0] $end
$var wire 32 $ r1 [31:0] $end
$var wire 32 % r10 [31:0] $end
$var wire 32 & r11 [31:0] $end
$var wire 32 ' r12 [31:0] $end
$var wire 32 ( r13 [31:0] $end
$var wire 32 ) r14 [31:0] $end
$var wire 32 * r15 [31:0] $end
$var wire 32 + r2 [31:0] $end
$var wire 32 , r3 [31:0] $end
$var wire 32 - r4 [31:0] $end
$var wire 32 . r5 [31:0] $end
$var wire 32 / r6 [31:0] $end
$var wire 32 0 r7 [31:0] $end
$var wire 32 1 r8 [31:0] $end
$var wire 32 2 r9 [31:0] $end
$var wire 1 3 trap $end
$var reg 1 4 Btn2 $end
$var reg 1 5 Btn3 $end
$var reg 8 6 Sw [7:0] $end
$var reg 1 7 clk $end
$var reg 1 8 rst $end
$var integer 32 9 k [31:0] $end
$var integer 32 : start_time [31:0] $end
$scope module uut $end
$var wire 1 4 Btn2 $end
$var wire 1 5 Btn3 $end
$var wire 8 ; Disp [7:0] $end
$var wire 4 < Disp_sel [3:0] $end
$var wire 8 = Sw [7:0] $end
$var wire 1 7 clk $end
$var wire 1 8 rst $end
$var wire 1 3 trap $end
$var wire 4 > second_nr [3:0] $end
$var wire 8 ? result_uncoded [7:0] $end
$var wire 1 @ regf_sel $end
$var wire 32 A regf_data_to_rd [31:0] $end
$var wire 9 B pc [8:0] $end
$var wire 4 C operation [3:0] $end
$var wire 1 D mem_sel $end
$var wire 32 E mem_data_to_rd [31:0] $end
$var wire 1 F led0_sel $end
$var wire 32 G instruction [31:0] $end
$var wire 4 H first_nr [3:0] $end
$var wire 1 I data_we $end
$var wire 32 J data_to_wr [31:0] $end
$var wire 32 K data_to_rd [31:0] $end
$var wire 1 L data_sel $end
$var wire 10 M data_addr [9:0] $end
$var wire 1 N cprt_sel $end
$var wire 1 O complement2_sel $end
$var wire 1 P complement2_finish $end
$var wire 1 Q alu_sel $end
$scope module addr_decoder $end
$var wire 1 4 btn2_data_to_read $end
$var wire 1 5 btn3_data_to_read $end
$var wire 8 R sw_data_to_read [7:0] $end
$var wire 1 L sel $end
$var wire 32 S regf_data_to_rd [31:0] $end
$var wire 32 T mem_data_to_rd [31:0] $end
$var wire 1 P alu_data_to_read $end
$var wire 10 U addr [9:0] $end
$var reg 1 Q alu_sel $end
$var reg 1 V btn2_sel $end
$var reg 1 W btn3_sel $end
$var reg 1 O complement2_sel $end
$var reg 1 N cprt_sel $end
$var reg 32 X data_to_rd [31:0] $end
$var reg 1 F led0_sel $end
$var reg 1 D mem_sel $end
$var reg 1 @ regf_sel $end
$var reg 1 Y sw2_sel $end
$var reg 1 Z sw_sel $end
$var reg 1 3 trap_sel $end
$upscope $end
$scope module complement1 $end
$var wire 1 [ ci $end
$var wire 1 7 clk $end
$var wire 1 O complement1_sel $end
$var wire 4 \ dumb_0 [3:0] $end
$var wire 12 ] nr_coded [11:0] $end
$var wire 1 8 rst $end
$var wire 4 ^ second_nr_aux [3:0] $end
$var wire 4 _ first_nr_aux [3:0] $end
$var wire 1 ` complement1_finish_nr2 $end
$var wire 1 a complement1_finish_nr1 $end
$var reg 1 P complement1_finish $end
$var reg 1 b complement1_sel_delay $end
$var reg 4 c first_nr [3:0] $end
$var reg 4 d first_nr_reg [3:0] $end
$var reg 4 e oper_nr_reg [3:0] $end
$var reg 4 f operation [3:0] $end
$var reg 4 g second_nr [3:0] $end
$var reg 4 h second_nr_reg [3:0] $end
$scope module complement_first_nr $end
$var wire 4 i a [3:0] $end
$var wire 4 j a_xor [3:0] $end
$var wire 4 k aux_xor [3:0] $end
$var wire 4 l b [3:0] $end
$var wire 1 [ ci $end
$var wire 1 7 clk $end
$var wire 1 m co $end
$var wire 1 b complement1_sel $end
$var wire 1 8 rst $end
$var wire 4 n sum_aux_v2 [3:0] $end
$var wire 4 o sum_aux [3:0] $end
$var wire 1 p aux3 $end
$var wire 1 q aux2 $end
$var wire 1 r aux1 $end
$var reg 1 a complement1_finish $end
$var reg 4 s sum [3:0] $end
$scope module adder0 $end
$var wire 1 t a $end
$var wire 1 u b $end
$var wire 1 [ ci $end
$var wire 1 7 clk $end
$var wire 1 r co $end
$var wire 1 v out_and1 $end
$var wire 1 w out_and2 $end
$var wire 1 x out_xor $end
$var wire 1 8 rst $end
$var wire 1 y sum $end
$upscope $end
$scope module adder1 $end
$var wire 1 z a $end
$var wire 1 { b $end
$var wire 1 r ci $end
$var wire 1 7 clk $end
$var wire 1 q co $end
$var wire 1 | out_and1 $end
$var wire 1 } out_and2 $end
$var wire 1 ~ out_xor $end
$var wire 1 8 rst $end
$var wire 1 !" sum $end
$upscope $end
$scope module adder2 $end
$var wire 1 "" a $end
$var wire 1 #" b $end
$var wire 1 q ci $end
$var wire 1 7 clk $end
$var wire 1 p co $end
$var wire 1 $" out_and1 $end
$var wire 1 %" out_and2 $end
$var wire 1 &" out_xor $end
$var wire 1 8 rst $end
$var wire 1 '" sum $end
$upscope $end
$upscope $end
$scope module complement_second_nr $end
$var wire 4 (" a [3:0] $end
$var wire 4 )" a_xor [3:0] $end
$var wire 4 *" aux_xor [3:0] $end
$var wire 4 +" b [3:0] $end
$var wire 1 [ ci $end
$var wire 1 7 clk $end
$var wire 1 ," co $end
$var wire 1 b complement1_sel $end
$var wire 1 8 rst $end
$var wire 4 -" sum_aux_v2 [3:0] $end
$var wire 4 ." sum_aux [3:0] $end
$var wire 1 /" aux3 $end
$var wire 1 0" aux2 $end
$var wire 1 1" aux1 $end
$var reg 1 ` complement1_finish $end
$var reg 4 2" sum [3:0] $end
$scope module adder0 $end
$var wire 1 3" a $end
$var wire 1 4" b $end
$var wire 1 [ ci $end
$var wire 1 7 clk $end
$var wire 1 1" co $end
$var wire 1 5" out_and1 $end
$var wire 1 6" out_and2 $end
$var wire 1 7" out_xor $end
$var wire 1 8 rst $end
$var wire 1 8" sum $end
$upscope $end
$scope module adder1 $end
$var wire 1 9" a $end
$var wire 1 :" b $end
$var wire 1 1" ci $end
$var wire 1 7 clk $end
$var wire 1 0" co $end
$var wire 1 ;" out_and1 $end
$var wire 1 <" out_and2 $end
$var wire 1 =" out_xor $end
$var wire 1 8 rst $end
$var wire 1 >" sum $end
$upscope $end
$scope module adder2 $end
$var wire 1 ?" a $end
$var wire 1 @" b $end
$var wire 1 0" ci $end
$var wire 1 7 clk $end
$var wire 1 /" co $end
$var wire 1 A" out_and1 $end
$var wire 1 B" out_and2 $end
$var wire 1 C" out_xor $end
$var wire 1 8 rst $end
$var wire 1 D" sum $end
$upscope $end
$upscope $end
$upscope $end
$scope module controller $end
$var wire 1 E" alu_arith_ops $end
$var wire 1 F" alu_imm_ops $end
$var wire 1 G" alu_logic_ops $end
$var wire 1 H" alu_mem_ops $end
$var wire 1 I" alu_ops $end
$var wire 32 J" and_res [31:0] $end
$var wire 1 K" branch_ops $end
$var wire 1 7 clk $end
$var wire 1 L" imm_ops $end
$var wire 1 M" load_imm_ops $end
$var wire 1 N" load_mem_ops $end
$var wire 1 O" load_ops $end
$var wire 32 P" mem_data_from [31:0] $end
$var wire 32 Q" mem_data_to [31:0] $end
$var wire 1 L mem_sel $end
$var wire 1 I mem_we $end
$var wire 1 8 rst $end
$var wire 1 R" store_mem_ops $end
$var wire 32 S" xor_res [31:0] $end
$var wire 4 T" opcode [3:0] $end
$var wire 32 U" instruction [31:0] $end
$var wire 32 V" imm [31:0] $end
$var reg 32 W" adder_res [31:0] $end
$var reg 1 X" alu_carry $end
$var reg 1 Y" alu_negative $end
$var reg 1 Z" alu_overflow $end
$var reg 32 [" alu_result [31:0] $end
$var reg 1 \" carry_res_n $end
$var reg 32 ]" carry_res_n_1 [31:0] $end
$var reg 10 ^" mem_addr [9:0] $end
$var reg 32 _" operand [31:0] $end
$var reg 9 `" pc [8:0] $end
$var reg 32 a" regA [31:0] $end
$var reg 32 b" regB [31:0] $end
$var reg 3 c" regC [2:0] $end
$upscope $end
$scope module cprint $end
$var wire 1 7 clk $end
$var wire 8 d" data_in [7:0] $end
$var wire 1 e" sel $end
$upscope $end
$scope module ram $end
$var wire 1 7 clk $end
$var wire 9 f" data_addr [8:0] $end
$var wire 9 g" data_addr_int [8:0] $end
$var wire 1 h" data_en_int $end
$var wire 32 i" data_in [31:0] $end
$var wire 32 j" data_in_int [31:0] $end
$var wire 32 k" data_out [31:0] $end
$var wire 1 D data_sel $end
$var wire 1 I data_we $end
$var wire 1 l" data_we_int $end
$var wire 1 m" instr_en $end
$var wire 9 n" pc [8:0] $end
$var reg 32 o" data_out_int [31:0] $end
$var reg 32 p" instruction [31:0] $end
$upscope $end
$scope module real_alu $end
$var wire 1 q" alu_done_aux $end
$var wire 1 Q alu_sel $end
$var wire 1 7 clk $end
$var wire 4 r" first_nr [3:0] $end
$var wire 4 s" operation [3:0] $end
$var wire 8 t" result_finish_div [7:0] $end
$var wire 1 8 rst $end
$var wire 4 u" second_nr [3:0] $end
$var wire 1 I wr_enable $end
$var wire 8 v" result_finish_mult [7:0] $end
$var wire 8 w" result_finish_adder [7:0] $end
$var wire 1 x" multiply_done $end
$var wire 1 y" done_sum $end
$var reg 1 z" alu_done $end
$var reg 1 {" alu_sel_reg $end
$var reg 4 |" first_nr_reg [3:0] $end
$var reg 4 }" operation_reg [3:0] $end
$var reg 8 ~" result_uncoded [7:0] $end
$var reg 4 !# second_nr_reg [3:0] $end
$scope module adder4bits $end
$var wire 4 "# a [3:0] $end
$var wire 4 ## b [3:0] $end
$var wire 1 $# ci $end
$var wire 1 7 clk $end
$var wire 1 8 rst $end
$var wire 1 Q start $end
$var wire 1 y" done_sum $end
$var wire 1 %# done_aux $end
$var wire 1 &# co $end
$var wire 4 '# aux_sum_final [3:0] $end
$var wire 1 (# aux3 $end
$var wire 1 )# aux2 $end
$var wire 1 *# aux1 $end
$var reg 4 +# counter [3:0] $end
$var reg 8 ,# sum [7:0] $end
$scope module adder0 $end
$var wire 1 -# a $end
$var wire 1 .# b $end
$var wire 1 $# ci $end
$var wire 1 7 clk $end
$var wire 1 *# co $end
$var wire 1 /# out_and1 $end
$var wire 1 0# out_and2 $end
$var wire 1 1# out_xor $end
$var wire 1 8 rst $end
$var wire 1 2# sum $end
$upscope $end
$scope module adder1 $end
$var wire 1 3# a $end
$var wire 1 4# b $end
$var wire 1 *# ci $end
$var wire 1 7 clk $end
$var wire 1 )# co $end
$var wire 1 5# out_and1 $end
$var wire 1 6# out_and2 $end
$var wire 1 7# out_xor $end
$var wire 1 8 rst $end
$var wire 1 8# sum $end
$upscope $end
$scope module adder2 $end
$var wire 1 9# a $end
$var wire 1 :# b $end
$var wire 1 )# ci $end
$var wire 1 7 clk $end
$var wire 1 (# co $end
$var wire 1 ;# out_and1 $end
$var wire 1 <# out_and2 $end
$var wire 1 =# out_xor $end
$var wire 1 8 rst $end
$var wire 1 ># sum $end
$upscope $end
$scope module adder3 $end
$var wire 1 ?# a $end
$var wire 1 @# b $end
$var wire 1 (# ci $end
$var wire 1 7 clk $end
$var wire 1 &# co $end
$var wire 1 A# out_and1 $end
$var wire 1 B# out_and2 $end
$var wire 1 C# out_xor $end
$var wire 1 8 rst $end
$var wire 1 D# sum $end
$upscope $end
$upscope $end
$scope module mult $end
$var wire 4 E# a [3:0] $end
$var wire 4 F# b [3:0] $end
$var wire 1 7 clk $end
$var wire 1 8 rst $end
$var wire 1 Q start $end
$var wire 4 G# second_nr_aux [3:0] $end
$var wire 8 H# resulty [7:0] $end
$var wire 1 x" multiply_done $end
$var wire 4 I# first_nr_aux [3:0] $end
$var wire 1 J# done $end
$var reg 8 K# aux_sumy_v2 [7:0] $end
$var reg 8 L# c [7:0] $end
$var reg 1 M# complement_result_sel $end
$var reg 4 N# counter [3:0] $end
$scope module multiply_comple2 $end
$var wire 1 O# ci $end
$var wire 1 7 clk $end
$var wire 1 P# complement1_sel $end
$var wire 4 Q# dumb_0 [3:0] $end
$var wire 4 R# first_nr_reg [3:0] $end
$var wire 1 8 rst $end
$var wire 4 S# second_nr_reg [3:0] $end
$var wire 4 T# second_nr_aux [3:0] $end
$var wire 4 U# first_nr_aux [3:0] $end
$var wire 1 V# complement1_finish_nr2 $end
$var wire 1 W# complement1_finish_nr1 $end
$var reg 1 X# complement1_finish $end
$var reg 4 Y# first_nr [3:0] $end
$var reg 4 Z# second_nr [3:0] $end
$scope module multiply_complement_first_nr $end
$var wire 4 [# a [3:0] $end
$var wire 4 \# a_xor [3:0] $end
$var wire 4 ]# aux_xor [3:0] $end
$var wire 4 ^# b [3:0] $end
$var wire 1 O# ci $end
$var wire 1 7 clk $end
$var wire 1 _# co $end
$var wire 1 P# complement1_sel $end
$var wire 4 `# dumby [3:0] $end
$var wire 1 8 rst $end
$var wire 4 a# sum_aux_v2 [3:0] $end
$var wire 4 b# sum_aux [3:0] $end
$var wire 1 c# aux3 $end
$var wire 1 d# aux2 $end
$var wire 1 e# aux1 $end
$var reg 1 W# complement1_finish $end
$var reg 4 f# sum [3:0] $end
$scope module adder0 $end
$var wire 1 g# a $end
$var wire 1 h# b $end
$var wire 1 O# ci $end
$var wire 1 7 clk $end
$var wire 1 e# co $end
$var wire 1 i# out_and1 $end
$var wire 1 j# out_and2 $end
$var wire 1 k# out_xor $end
$var wire 1 8 rst $end
$var wire 1 l# sum $end
$upscope $end
$scope module adder1 $end
$var wire 1 m# a $end
$var wire 1 n# b $end
$var wire 1 e# ci $end
$var wire 1 7 clk $end
$var wire 1 d# co $end
$var wire 1 o# out_and1 $end
$var wire 1 p# out_and2 $end
$var wire 1 q# out_xor $end
$var wire 1 8 rst $end
$var wire 1 r# sum $end
$upscope $end
$scope module adder2 $end
$var wire 1 s# a $end
$var wire 1 t# b $end
$var wire 1 d# ci $end
$var wire 1 7 clk $end
$var wire 1 c# co $end
$var wire 1 u# out_and1 $end
$var wire 1 v# out_and2 $end
$var wire 1 w# out_xor $end
$var wire 1 8 rst $end
$var wire 1 x# sum $end
$upscope $end
$upscope $end
$scope module multiply_complement_second_nr $end
$var wire 4 y# a [3:0] $end
$var wire 4 z# a_xor [3:0] $end
$var wire 4 {# aux_xor [3:0] $end
$var wire 4 |# b [3:0] $end
$var wire 1 O# ci $end
$var wire 1 7 clk $end
$var wire 1 }# co $end
$var wire 1 P# complement1_sel $end
$var wire 4 ~# dumby [3:0] $end
$var wire 1 8 rst $end
$var wire 4 !$ sum_aux_v2 [3:0] $end
$var wire 4 "$ sum_aux [3:0] $end
$var wire 1 #$ aux3 $end
$var wire 1 $$ aux2 $end
$var wire 1 %$ aux1 $end
$var reg 1 V# complement1_finish $end
$var reg 4 &$ sum [3:0] $end
$scope module adder0 $end
$var wire 1 '$ a $end
$var wire 1 ($ b $end
$var wire 1 O# ci $end
$var wire 1 7 clk $end
$var wire 1 %$ co $end
$var wire 1 )$ out_and1 $end
$var wire 1 *$ out_and2 $end
$var wire 1 +$ out_xor $end
$var wire 1 8 rst $end
$var wire 1 ,$ sum $end
$upscope $end
$scope module adder1 $end
$var wire 1 -$ a $end
$var wire 1 .$ b $end
$var wire 1 %$ ci $end
$var wire 1 7 clk $end
$var wire 1 $$ co $end
$var wire 1 /$ out_and1 $end
$var wire 1 0$ out_and2 $end
$var wire 1 1$ out_xor $end
$var wire 1 8 rst $end
$var wire 1 2$ sum $end
$upscope $end
$scope module adder2 $end
$var wire 1 3$ a $end
$var wire 1 4$ b $end
$var wire 1 $$ ci $end
$var wire 1 7 clk $end
$var wire 1 #$ co $end
$var wire 1 5$ out_and1 $end
$var wire 1 6$ out_and2 $end
$var wire 1 7$ out_xor $end
$var wire 1 8 rst $end
$var wire 1 8$ sum $end
$upscope $end
$upscope $end
$upscope $end
$scope module multiply_complement_result $end
$var wire 8 9$ a [7:0] $end
$var wire 8 :$ a_xor [7:0] $end
$var wire 8 ;$ aux_xor [7:0] $end
$var wire 8 <$ b [7:0] $end
$var wire 1 =$ ci $end
$var wire 1 7 clk $end
$var wire 1 >$ co $end
$var wire 1 M# complement1_sel $end
$var wire 8 ?$ dumby [7:0] $end
$var wire 1 8 rst $end
$var wire 8 @$ sum_aux [7:0] $end
$var wire 1 A$ aux8 $end
$var wire 1 B$ aux7 $end
$var wire 1 C$ aux6 $end
$var wire 1 D$ aux5 $end
$var wire 1 E$ aux4 $end
$var wire 1 F$ aux3 $end
$var wire 1 G$ aux2 $end
$var wire 1 H$ aux1 $end
$var reg 1 I$ complement1_finish $end
$var reg 8 J$ sum [7:0] $end
$scope module adder0 $end
$var wire 1 K$ a $end
$var wire 1 L$ b $end
$var wire 1 =$ ci $end
$var wire 1 7 clk $end
$var wire 1 H$ co $end
$var wire 1 M$ out_and1 $end
$var wire 1 N$ out_and2 $end
$var wire 1 O$ out_xor $end
$var wire 1 8 rst $end
$var wire 1 P$ sum $end
$upscope $end
$scope module adder1 $end
$var wire 1 Q$ a $end
$var wire 1 R$ b $end
$var wire 1 H$ ci $end
$var wire 1 7 clk $end
$var wire 1 G$ co $end
$var wire 1 S$ out_and1 $end
$var wire 1 T$ out_and2 $end
$var wire 1 U$ out_xor $end
$var wire 1 8 rst $end
$var wire 1 V$ sum $end
$upscope $end
$scope module adder2 $end
$var wire 1 W$ a $end
$var wire 1 X$ b $end
$var wire 1 G$ ci $end
$var wire 1 7 clk $end
$var wire 1 F$ co $end
$var wire 1 Y$ out_and1 $end
$var wire 1 Z$ out_and2 $end
$var wire 1 [$ out_xor $end
$var wire 1 8 rst $end
$var wire 1 \$ sum $end
$upscope $end
$scope module adder3 $end
$var wire 1 ]$ a $end
$var wire 1 ^$ b $end
$var wire 1 F$ ci $end
$var wire 1 7 clk $end
$var wire 1 E$ co $end
$var wire 1 _$ out_and1 $end
$var wire 1 `$ out_and2 $end
$var wire 1 a$ out_xor $end
$var wire 1 8 rst $end
$var wire 1 b$ sum $end
$upscope $end
$scope module adder4 $end
$var wire 1 c$ a $end
$var wire 1 d$ b $end
$var wire 1 E$ ci $end
$var wire 1 7 clk $end
$var wire 1 D$ co $end
$var wire 1 e$ out_and1 $end
$var wire 1 f$ out_and2 $end
$var wire 1 g$ out_xor $end
$var wire 1 8 rst $end
$var wire 1 h$ sum $end
$upscope $end
$scope module adder5 $end
$var wire 1 i$ a $end
$var wire 1 j$ b $end
$var wire 1 D$ ci $end
$var wire 1 7 clk $end
$var wire 1 C$ co $end
$var wire 1 k$ out_and1 $end
$var wire 1 l$ out_and2 $end
$var wire 1 m$ out_xor $end
$var wire 1 8 rst $end
$var wire 1 n$ sum $end
$upscope $end
$scope module adder6 $end
$var wire 1 o$ a $end
$var wire 1 p$ b $end
$var wire 1 C$ ci $end
$var wire 1 7 clk $end
$var wire 1 B$ co $end
$var wire 1 q$ out_and1 $end
$var wire 1 r$ out_and2 $end
$var wire 1 s$ out_xor $end
$var wire 1 8 rst $end
$var wire 1 t$ sum $end
$upscope $end
$scope module adder7 $end
$var wire 1 u$ a $end
$var wire 1 v$ b $end
$var wire 1 B$ ci $end
$var wire 1 7 clk $end
$var wire 1 A$ co $end
$var wire 1 w$ out_and1 $end
$var wire 1 x$ out_and2 $end
$var wire 1 y$ out_xor $end
$var wire 1 8 rst $end
$var wire 1 z$ sum $end
$upscope $end
$upscope $end
$upscope $end
$upscope $end
$scope module regf $end
$var wire 4 {$ addr [3:0] $end
$var wire 1 7 clk $end
$var wire 32 |$ data_in [31:0] $end
$var wire 1 @ sel $end
$var wire 1 I we $end
$var wire 32 }$ data_out [31:0] $end
$upscope $end
$upscope $end
$upscope $end
$enddefinitions $end
#0
$dumpvars
bx }$
bx |$
bx {$
xz$
xy$
0x$
xw$
0v$
xu$
xt$
xs$
0r$
xq$
0p$
xo$
xn$
xm$
0l$
xk$
0j$
xi$
xh$
xg$
0f$
xe$
0d$
xc$
xb$
xa$
0`$
x_$
0^$
x]$
x\$
x[$
0Z$
xY$
0X$
xW$
xV$
xU$
0T$
xS$
0R$
xQ$
xP$
xO$
0N$
xM$
0L$
xK$
bx J$
xI$
xH$
xG$
xF$
xE$
xD$
xC$
xB$
xA$
bx @$
b0 ?$
z>$
1=$
b0 <$
b11111111 ;$
bx :$
bx 9$
x8$
x7$
06$
x5$
04$
x3$
x2$
x1$
00$
x/$
0.$
x-$
x,$
x+$
0*$
x)$
0($
x'$
bx &$
x%$
x$$
x#$
bzxxx "$
b0xxx !$
b0 ~#
z}#
b0 |#
b1111 {#
bx z#
bx y#
xx#
xw#
0v#
xu#
0t#
xs#
xr#
xq#
0p#
xo#
0n#
xm#
xl#
xk#
0j#
xi#
0h#
xg#
bx f#
xe#
xd#
xc#
bzxxx b#
b0xxx a#
b0 `#
z_#
b0 ^#
b1111 ]#
bx \#
bx [#
bx Z#
bx Y#
xX#
xW#
xV#
bx U#
bx T#
bx S#
bx R#
b0 Q#
1P#
1O#
bx N#
1M#
bx L#
bx K#
xJ#
bx I#
bx H#
bx G#
bx F#
bx E#
xD#
xC#
xB#
xA#
x@#
x?#
x>#
x=#
x<#
x;#
x:#
x9#
x8#
x7#
x6#
x5#
x4#
x3#
x2#
x1#
x0#
0/#
x.#
x-#
bx ,#
bx +#
x*#
x)#
x(#
bx '#
x&#
x%#
0$#
bx ##
bx "#
bx !#
bx ~"
bx }"
bx |"
x{"
xz"
xy"
xx"
bx w"
bx v"
bx u"
bz t"
bx s"
bx r"
xq"
bx p"
bx o"
bx n"
1m"
xl"
bx k"
bx j"
bx i"
xh"
bx g"
bx f"
xe"
bx d"
bx c"
bx b"
bx a"
bx `"
b0 _"
bx ^"
bx ]"
x\"
b0 ["
0Z"
0Y"
0X"
bx W"
bx V"
bx U"
bx T"
bx S"
xR"
bx Q"
b0 P"
xO"
xN"
xM"
xL"
xK"
b0 J"
xI"
xH"
xG"
xF"
xE"
xD"
xC"
0B"
xA"
0@"
x?"
x>"
x="
0<"
x;"
0:"
x9"
x8"
x7"
06"
x5"
04"
x3"
bx 2"
x1"
x0"
x/"
bzxxx ."
bx -"
z,"
b0 +"
b1111 *"
bx )"
bx ("
x'"
x&"
0%"
x$"
0#"
x""
x!"
x~
0}
x|
0{
xz
xy
xx
0w
xv
0u
xt
bx s
xr
xq
xp
bzxxx o
bx n
zm
b0 l
b1111 k
bx j
bx i
bx h
bx g
bx f
bx e
bx d
bx c
xb
xa
x`
bx _
bx ^
bx ]
b0 \
1[
xZ
xY
b0 X
xW
xV
bx U
bx T
bx S
b11111111 R
xQ
xP
xO
xN
bx M
xL
b0 K
bx J
xI
bx H
bx G
xF
bx E
xD
bx C
bx B
bx A
x@
bx ?
bx >
b11111111 =
bz <
bz ;
bx :
bx 9
08
17
b11111111 6
15
04
x3
bx 2
bx 1
bx 0
bx /
bx .
bx -
bx ,
bx +
bx *
bx )
bx (
bx '
bx &
bx %
bx $
bx #
bz "
bz !
$end
#5000
07
#10000
17
#11000
1#$
1c#
1/"
1p
15$
08$
1u#
0x#
1A"
0D"
1$"
0'"
1$$
1d#
10"
1q
1/$
02$
1o#
0r#
1;"
0>"
1|
0!"
1%$
b0 !$
0>#
0D#
1e#
b0 a#
11"
1r
1)$
bz000 "$
0,$
08#
0)#
0(#
0&#
1i#
bz000 b#
0l#
15"
bz000 ."
08"
1v
bz000 o
0y
1+$
11$
17$
b0 '#
02#
0*#
05#
0;#
0A#
1k#
1q#
1w#
17"
1="
1C"
1x
1~
1&"
1'$
1-$
13$
01#
00#
07#
06#
0=#
0<#
0C#
0B#
1g#
1m#
1s#
13"
19"
1?"
1t
1z
1""
b0 W"
0\"
b0 ]"
b0 S"
b0 d"
b0 ]
0.#
04#
0:#
0@#
b1111 z#
0-#
03#
09#
0?#
b1111 \#
b1111 )"
b0 -"
b1111 j
b0 n
b0 B
b0 `"
b0 n"
b0 j"
b0 J
b0 Q"
b0 i"
b0 |$
b0 a"
b0 b"
b0 c"
0W#
b0 U#
b0 f#
0V#
b0 T#
b0 &$
0I$
b0 H#
b0 J$
b0 }"
b0 !#
b0 ##
b0 F#
b0 S#
b0 y#
b0 |"
b0 "#
b0 E#
b0 R#
b0 [#
0a
b0 _
b0 s
0`
b0 ^
b0 2"
0P
b0 e
b0 h
b0 ("
b0 d
b0 i
18
#15000
07
#20000
1A$
1w$
0z$
1B$
1q$
0t$
1C$
1k$
0n$
1D$
1e$
0h$
1E$
1_$
0b$
b1 W"
b1 ]"
b1 S"
1F$
b1 _"
1Y$
0\$
b1 K
b1 X
b1 P"
1G$
1S$
0V$
1L
b0 A
b0 S
b0 }$
1H$
b110 {$
b11000110 g"
b11000110 f"
03
0N
0@
0h"
0D
0Q
0O
0F
0Y
0Z
0V
1W
1M$
b0 @$
0P$
b1011000110 M
b1011000110 U
b1011000110 ^"
0H"
0I"
0e"
1O"
0L"
1O$
1U$
1[$
1a$
1g$
1m$
1s$
1y$
b1011000110 V"
0K"
0G"
0E"
0F"
0l"
0I
0R"
1N"
0M"
1K$
1Q$
1W$
1]$
1c$
1i$
1o$
1u$
0q"
b1000 T"
b11111111 :$
b10000000000000000000001011000110 G
b10000000000000000000001011000110 U"
b10000000000000000000001011000110 p"
b0 w"
b0 ,#
0%#
0y"
b100 +#
b0 K#
b0 9$
0x"
0J#
b100 N#
b0 ?
b0 ~"
1V#
1W#
17
#21000
b10101 :
08
#25000
07
#30000
b10 W"
b10 ]"
b0 S"
b1 J"
b1 d"
b1 ]
b101 N#
b101 +#
b1 B
b1 `"
b1 n"
b1 j"
b1 J
b1 Q"
b1 i"
b1 |$
b1 a"
b0 G#
b0 Z#
b0 I#
b0 Y#
1X#
1I$
0z"
17
#35000
07
#40000
0L
b0 K
b0 X
b0 P"
b1 W"
b1 ]"
b1 S"
b0 J"
b0 {$
b0 g"
b0 f"
0h"
0D
0W
1K"
b0 _"
b0 M
b0 U
b0 ^"
0O"
b0 V"
0N"
b1100 T"
b11000000000000000000000000000000 G
b11000000000000000000000000000000 U"
b11000000000000000000000000000000 p"
b110 +#
b110 N#
b10 B
b10 `"
b10 n"
17
#45000
07
#50000
0K"
1I"
1E"
1L"
1F"
b0 T"
b0 W"
b0 ]"
b0 S"
b0 d"
b0 ]
b111 N#
b111 +#
b0 G
b0 U"
b0 p"
b11 B
b11 `"
b11 n"
b0 j"
b0 J
b0 Q"
b0 i"
b0 |$
b0 a"
17
#55000
07
#60000
b11111111 W"
b11111111 ]"
b11111111 S"
b11111111 _"
b11111111 K
b11111111 X
b11111111 P"
1Z
1L
b11000000 g"
b11000000 f"
0I"
b1011000000 M
b1011000000 U
b1011000000 ^"
0H"
0E"
0L"
1O"
b1011000000 V"
0F"
1N"
b1000 T"
b10000000000000000000001011000000 G
b10000000000000000000001011000000 U"
b10000000000000000000001011000000 p"
b1000 +#
1J#
b1000 N#
b100 B
b100 `"
b100 n"
17
#65000
07
#70000
bx A
bx S
bx }$
bx K
bx X
bx P"
b0 g"
b0 f"
1@
0Z
b0 _"
b1000000000 M
b1000000000 U
b1000000000 ^"
0O"
1q"
b1000000000 V"
1l"
1I
1R"
0N"
b1001 T"
b11111111 W"
b11111111 ]"
b11111111 S"
b0 J"
b11111111 d"
b11111111 ]
b0 v"
b0 L#
1x"
0J#
b1001 N#
b1001 +#
b10010000000000000000001000000000 G
b10010000000000000000001000000000 U"
b10010000000000000000001000000000 p"
b101 B
b101 `"
b101 n"
b11111111 j"
b11111111 J
b11111111 Q"
b11111111 i"
b11111111 |$
b11111111 a"
17
#71000
bx K
bx X
bx P"
14
05
b1 6
b1 =
b1 R
#75000
07
#80000
b100000000 W"
b100000000 ]"
b11111110 S"
b1 J"
b1010 {$
b11001010 g"
b11001010 f"
1V
0@
b1 _"
b1011001010 M
b1011001010 U
b1011001010 ^"
1O"
b1011001010 V"
0l"
0I
0R"
1N"
b1 K
b1 X
b1 P"
0q"
b1000 T"
b0 A
b0 S
b0 }$
b10000000000000000000001011001010 G
b10000000000000000000001011001010 U"
b10000000000000000000001011001010 p"
b11111111 #
b1010 +#
0x"
b1010 N#
1z"
b110 B
b110 `"
b110 n"
17
#85000
07
#90000
0L
b0 K
b0 X
b0 P"
b0 J"
b101 {$
b101 g"
b101 f"
0h"
0D
0V
1K"
b0 _"
b101 M
b101 U
b101 ^"
0O"
b101 V"
0N"
b1100 T"
b1 W"
b1 ]"
b1 S"
b1 d"
b1 ]
b1011 N#
b1011 +#
b11000000000000000000000000000101 G
b11000000000000000000000000000101 U"
b11000000000000000000000000000101 p"
b111 B
b111 `"
b111 n"
b1 j"
b1 J
b1 Q"
b1 i"
b1 |$
b1 a"
0z"
17
#95000
07
#100000
b0 {$
b0 g"
b0 f"
0K"
1I"
b0 M
b0 U
b0 ^"
1E"
1L"
b0 V"
1F"
b0 T"
b0 W"
b0 ]"
b0 S"
b0 d"
b0 ]
b0 G
b0 U"
b0 p"
b0 j"
b0 J
b0 Q"
b0 i"
b0 |$
b0 a"
b1000 B
b1000 `"
b1000 n"
17
#105000
07
#110000
b1 W"
b1 ]"
b1 S"
b1 _"
b1 K
b1 X
b1 P"
1Y
1L
b1110 {$
b11001110 g"
b11001110 f"
0I"
b1011001110 M
b1011001110 U
b1011001110 ^"
0H"
0E"
0L"
1O"
b1011001110 V"
0F"
1N"
b1000 T"
b10000000000000000000001011001110 G
b10000000000000000000001011001110 U"
b10000000000000000000001011001110 p"
b1001 B
b1001 `"
b1001 n"
17
#115000
07
