testes/Old_tests_v2/display_buttons_v4/xtop.vcd
$date
	Mon Jan 13 15:57:24 2020
$end
$version
	Icarus Verilog
$end
$timescale
	1ps
$end
$scope module xtop_tb $end
$var wire 32 ! r0 [31:0] $end
$var wire 32 " r1 [31:0] $end
$var wire 32 # r10 [31:0] $end
$var wire 32 $ r11 [31:0] $end
$var wire 32 % r12 [31:0] $end
$var wire 32 & r13 [31:0] $end
$var wire 32 ' r14 [31:0] $end
$var wire 32 ( r15 [31:0] $end
$var wire 32 ) r2 [31:0] $end
$var wire 32 * r3 [31:0] $end
$var wire 32 + r4 [31:0] $end
$var wire 32 , r5 [31:0] $end
$var wire 32 - r6 [31:0] $end
$var wire 32 . r7 [31:0] $end
$var wire 32 / r8 [31:0] $end
$var wire 32 0 r9 [31:0] $end
$var wire 1 1 trap $end
$var wire 4 2 Disp_sel [3:0] $end
$var wire 8 3 Disp [7:0] $end
$var reg 1 4 Btn2 $end
$var reg 1 5 Btn3 $end
$var reg 8 6 Sw [7:0] $end
$var reg 1 7 clk $end
$var reg 1 8 rst $end
$var integer 32 9 k [31:0] $end
$var integer 32 : start_time [31:0] $end
$scope module uut $end
$var wire 1 4 Btn2 $end
$var wire 1 5 Btn3 $end
$var wire 8 ; Sw [7:0] $end
$var wire 1 7 clk $end
$var wire 1 8 rst $end
$var wire 1 1 trap $end
$var wire 1 < regf_sel $end
$var wire 32 = regf_data_to_rd [31:0] $end
$var wire 9 > pc [8:0] $end
$var wire 1 ? mem_sel $end
$var wire 32 @ mem_data_to_rd [31:0] $end
$var wire 1 A led0_sel $end
$var wire 32 B instruction [31:0] $end
$var wire 1 C data_we $end
$var wire 32 D data_to_wr [31:0] $end
$var wire 32 E data_to_rd [31:0] $end
$var wire 1 F data_sel $end
$var wire 10 G data_addr [9:0] $end
$var wire 1 H cprt_sel $end
$var wire 4 I Disp_sel [3:0] $end
$var wire 8 J Disp [7:0] $end
$scope module addr_decoder $end
$var wire 1 4 btn2_data_to_read $end
$var wire 1 5 btn3_data_to_read $end
$var wire 8 K sw_data_to_read [7:0] $end
$var wire 1 F sel $end
$var wire 32 L regf_data_to_rd [31:0] $end
$var wire 32 M mem_data_to_rd [31:0] $end
$var wire 10 N addr [9:0] $end
$var reg 1 O btn2_sel $end
$var reg 1 P btn3_sel $end
$var reg 1 H cprt_sel $end
$var reg 32 Q data_to_rd [31:0] $end
$var reg 1 A led0_sel $end
$var reg 1 ? mem_sel $end
$var reg 1 < regf_sel $end
$var reg 1 R sw2_sel $end
$var reg 1 S sw_sel $end
$var reg 1 1 trap_sel $end
$upscope $end
$scope module controller $end
$var wire 1 T alu_arith_ops $end
$var wire 1 U alu_imm_ops $end
$var wire 1 V alu_logic_ops $end
$var wire 1 W alu_mem_ops $end
$var wire 1 X alu_ops $end
$var wire 32 Y and_res [31:0] $end
$var wire 1 Z branch_ops $end
$var wire 1 7 clk $end
$var wire 1 [ imm_ops $end
$var wire 1 \ load_imm_ops $end
$var wire 1 ] load_mem_ops $end
$var wire 1 ^ load_ops $end
$var wire 32 _ mem_data_from [31:0] $end
$var wire 32 ` mem_data_to [31:0] $end
$var wire 1 F mem_sel $end
$var wire 1 C mem_we $end
$var wire 1 8 rst $end
$var wire 1 a store_mem_ops $end
$var wire 32 b xor_res [31:0] $end
$var wire 4 c opcode [3:0] $end
$var wire 32 d instruction [31:0] $end
$var wire 32 e imm [31:0] $end
$var reg 32 f adder_res [31:0] $end
$var reg 1 g alu_carry $end
$var reg 1 h alu_negative $end
$var reg 1 i alu_overflow $end
$var reg 32 j alu_result [31:0] $end
$var reg 1 k carry_res_n $end
$var reg 32 l carry_res_n_1 [31:0] $end
$var reg 10 m mem_addr [9:0] $end
$var reg 32 n operand [31:0] $end
$var reg 9 o pc [8:0] $end
$var reg 32 p regA [31:0] $end
$var reg 32 q regB [31:0] $end
$var reg 3 r regC [2:0] $end
$upscope $end
$scope module cprint $end
$var wire 1 7 clk $end
$var wire 8 s data_in [7:0] $end
$var wire 1 t sel $end
$upscope $end
$scope module displayDecoder $end
$var wire 8 u bin [7:0] $end
$var wire 1 7 clk $end
$var wire 2 v dot [1:0] $end
$var wire 1 A led0_sel $end
$var wire 2 w msg [1:0] $end
$var wire 1 8 rst $end
$var wire 1 x sgn $end
$var wire 1 C wr_enable $end
$var wire 2 y LED_activating_counter [1:0] $end
$var reg 5 z aux [4:0] $end
$var reg 12 { bcd [11:0] $end
$var reg 8 | bin_reg [7:0] $end
$var reg 2 } disp_dot [1:0] $end
$var reg 4 ~ disp_select [3:0] $end
$var reg 8 !" disp_value [7:0] $end
$var reg 4 "" j [3:0] $end
$var reg 20 #" refresh_counter [19:0] $end
$upscope $end
$scope module ram $end
$var wire 1 7 clk $end
$var wire 9 $" data_addr [8:0] $end
$var wire 9 %" data_addr_int [8:0] $end
$var wire 1 &" data_en_int $end
$var wire 32 '" data_in [31:0] $end
$var wire 32 (" data_in_int [31:0] $end
$var wire 32 )" data_out [31:0] $end
$var wire 1 ? data_sel $end
$var wire 1 C data_we $end
$var wire 1 *" data_we_int $end
$var wire 1 +" instr_en $end
$var wire 9 ," pc [8:0] $end
$var reg 32 -" data_out_int [31:0] $end
$var reg 32 ." instruction [31:0] $end
$upscope $end
$scope module regf $end
$var wire 4 /" addr [3:0] $end
$var wire 1 7 clk $end
$var wire 32 0" data_in [31:0] $end
$var wire 1 < sel $end
$var wire 1 C we $end
$var wire 32 1" data_out [31:0] $end
$upscope $end
$upscope $end
$upscope $end
$enddefinitions $end
#0
$dumpvars
bx 1"
bx 0"
bx /"
bx ."
bx -"
bx ,"
1+"
x*"
bx )"
bx ("
bx '"
x&"
bx %"
bx $"
bx #"
bx ""
bx !"
bx ~
b0 }
bx |
bx {
bx z
bx y
0x
b0 w
b0 v
bx u
xt
bx s
bx r
bx q
bx p
bx o
b0 n
bx m
bx l
xk
b0 j
0i
0h
0g
bx f
bx e
bx d
bx c
bx b
xa
bx `
b0 _
x^
x]
x\
x[
xZ
b0 Y
xX
xW
xV
xU
xT
xS
xR
b0 Q
xP
xO
bx N
bx M
bx L
b1001010 K
bx J
bx I
xH
bx G
xF
b0 E
bx D
xC
bx B
xA
bx @
x?
bx >
bx =
x<
b1001010 ;
bx :
bx 9
08
17
b1001010 6
15
04
bx 3
bx 2
x1
bx 0
bx /
bx .
bx -
bx ,
bx +
bx *
bx )
bx (
bx '
bx &
bx %
bx $
bx #
bx "
bx !
$end
#5000
07
#10000
17
#11000
b11000000 3
b11000000 J
b11000000 !"
b0 z
b1110 2
b1110 I
b1110 ~
b0 f
0k
b0 l
b0 b
b0 s
b0 u
b0 y
b1000 ""
b0 {
b0 >
b0 o
b0 ,"
b0 ("
b0 D
b0 `
b0 '"
b0 0"
b0 p
b0 q
b0 r
b0 #"
b0 |
18
#15000
07
#20000
b1 f
b1 l
b1 b
b1 n
b1 E
b1 Q
b1 _
1F
b0 =
b0 L
b0 1"
b110 /"
b11000110 %"
b11000110 $"
01
0H
0<
0&"
0?
0A
0R
0S
0O
1P
b1011000110 G
b1011000110 N
b1011000110 m
0W
0X
0t
1^
0[
b1011000110 e
0Z
0V
0T
0U
0*"
0C
0a
1]
0\
b1000 c
b10000000000000000000001011000110 B
b10000000000000000000001011000110 d
b10000000000000000000001011000110 ."
17
#21000
b10101 :
08
#25000
07
#30000
b10 f
b10 l
b0 b
b1 Y
b1 s
b1 u
b1 >
b1 o
b1 ,"
b1 ("
b1 D
b1 `
b1 '"
b1 0"
b1 p
b1 #"
17
#35000
07
#40000
0F
b0 E
b0 Q
b0 _
b1 f
b1 l
b1 b
b0 Y
b0 /"
b0 %"
b0 $"
0&"
0?
0P
1Z
b0 n
b0 G
b0 N
b0 m
0^
b0 e
0]
b1100 c
b10 #"
b10 >
b10 o
b10 ,"
b11000000000000000000000000000000 B
b11000000000000000000000000000000 d
b11000000000000000000000000000000 ."
17
#45000
07
#50000
0Z
1X
1T
1[
1U
b0 f
b0 l
b0 b
b0 s
b0 u
b0 c
b11 >
b11 o
b11 ,"
b0 ("
b0 D
b0 `
b0 '"
b0 0"
b0 p
b11 #"
b0 B
b0 d
b0 ."
17
#55000
07
#60000
b1001010 f
b1001010 l
b1001010 b
b1001010 n
b1001010 E
b1001010 Q
b1001010 _
1S
1F
b11000000 %"
b11000000 $"
0X
b1011000000 G
b1011000000 N
b1011000000 m
0W
0T
0[
1^
b1011000000 e
0U
1]
b1000 c
b100 #"
b100 >
b100 o
b100 ,"
b10000000000000000000001011000000 B
b10000000000000000000001011000000 d
b10000000000000000000001011000000 ."
17
#65000
07
#70000
bx =
bx L
bx 1"
bx E
bx Q
bx _
b0 %"
b0 $"
1<
0S
b0 n
b1000000000 G
b1000000000 N
b1000000000 m
0^
b1000000000 e
1*"
1C
1a
0]
b1001010 f
b1001010 l
b1001010 b
b0 Y
b1001010 s
b1001010 u
b1001 c
b101 >
b101 o
b101 ,"
b1001010 ("
b1001010 D
b1001010 `
b1001010 '"
b1001010 0"
b1001010 p
b101 #"
b10010000000000000000001000000000 B
b10010000000000000000001000000000 d
b10010000000000000000001000000000 ."
17
#71000
bx E
bx Q
bx _
14
05
b1 6
b1 ;
b1 K
#75000
07
#80000
b1001011 f
b1001011 l
b1001011 b
b0 Y
b1010 /"
b11001010 %"
b11001010 $"
1O
0<
b1 n
b1011001010 G
b1011001010 N
b1011001010 m
1^
b1011001010 e
0*"
0C
0a
1]
b1 E
b1 Q
b1 _
b1000 c
b0 =
b0 L
b0 1"
b110 #"
b110 >
b110 o
b110 ,"
b10000000000000000000001011001010 B
b10000000000000000000001011001010 d
b10000000000000000000001011001010 ."
b1001010 !
17
#85000
07
#90000
0F
b0 E
b0 Q
b0 _
b101 /"
b101 %"
b101 $"
0&"
0?
0O
1Z
b0 n
b101 G
b101 N
b101 m
0^
b101 e
0]
b1 f
b1 l
b1 b
b0 Y
b1 s
b1 u
b1100 c
b111 >
b111 o
b111 ,"
b1 ("
b1 D
b1 `
b1 '"
b1 0"
b1 p
b111 #"
b11000000000000000000000000000101 B
b11000000000000000000000000000101 d
b11000000000000000000000000000101 ."
17
#95000
07
#100000
b0 /"
b0 %"
b0 $"
0Z
1X
b0 G
b0 N
b0 m
1T
1[
b0 e
1U
b0 f
b0 l
b0 b
b0 s
b0 u
b0 c
b1000 #"
b0 ("
b0 D
b0 `
b0 '"
b0 0"
b0 p
b1000 >
b1000 o
b1000 ,"
b0 B
b0 d
b0 ."
17
#105000
07
#110000
b1 f
b1 l
b1 b
b1 n
b1 E
b1 Q
b1 _
1R
1F
b1110 /"
b11001110 %"
b11001110 $"
0X
b1011001110 G
b1011001110 N
b1011001110 m
0W
0T
0[
1^
b1011001110 e
0U
1]
b1000 c
b1001 >
b1001 o
b1001 ,"
b1001 #"
b10000000000000000000001011001110 B
b10000000000000000000001011001110 d
b10000000000000000000001011001110 ."
17
#115000
07
#120000
bx =
bx L
bx 1"
bx E
bx Q
bx _
b1 /"
b1 %"
b1 $"
1<
0R
b0 n
b1000000001 G
b1000000001 N
b1000000001 m
0^
b1000000001 e
1*"
1C
1a
0]
b1 f
b1 l
b1 b
b0 Y
b1 s
b1 u
b1001 c
b1010 #"
b1 ("
b1 D
b1 `
b1 '"
b1 0"
b1 p
b1010 >
b1010 o
b1010 ,"
b10010000000000000000001000000001 B
b10010000000000000000001000000001 d
b10010000000000000000001000000001 ."
17
#125000
07
#130000
b1001011 f
b1001011 l
b1001011 b
b0 Y
b0 /"
b0 %"
b0 $"
1<
b1001010 n
b1000000000 G
b1000000000 N
b1000000000 m
1^
b1001010 E
b1001010 Q
b1001010 _
b1000000000 e
0*"
0C
0a
1]
b1001010 =
b1001010 L
b1001010 1"
b1000 c
b1011 >
b1011 o
b1011 ,"
b1011 #"
b1 "
b10000000000000000000001000000000 B
b10000000000000000000001000000000 d
b10000000000000000000001000000000 ."
17
#135000
07
#140000
1k
0F
b0 E
b0 Q
b0 _
b0 =
b0 L
b0 1"
b1111 /"
b111111111 %"
b111111111 $"
01
0<
1X
b11111111111111111111111111111111 n
b1111111111 G
b1111111111 N
b1111111111 m
1[
0^
b11111111111111111111111111111111 e
1U
0]
b10010100 j
b1001001 f
b10000000000000000000000001001001 l
b11111111111111111111111110110101 b
b1001010 Y
b1001010 s
b1001010 u
b11 c
b1100 #"
b1001010 ("
b1001010 D
b1001010 `
b1001010 '"
b1001010 0"
b1001010 p
b1100 >
b1100 o
b1100 ,"
b111111111111111111111111111111 B
b111111111111111111111111111111 d
b111111111111111111111111111111 ."
17
#145000
07
#150000
b100101000 j
b10010011 f
b10000000000000000000000010010011 l
b11111111111111111111111101101011 b
b10010100 Y
b10010100 s
b10010100 u
b1101 >
b1101 o
b1101 ,"
b10010100 ("
b10010100 D
b10010100 `
b10010100 '"
b10010100 0"
b10010100 p
b1101 #"
17
#155000
07
#160000
b1001010000 j
b100100111 f
b10000000000000000000000100100111 l
b11111111111111111111111011010111 b
b100101000 Y
b101000 s
b101000 u
b1110 #"
b100101000 ("
b100101000 D
b100101000 `
b100101000 '"
b100101000 0"
b100101000 p
b1110 >
b1110 o
b1110 ,"
17
#165000
07
#170000
b10010100000 j
b1001001111 f
b10000000000000000000001001001111 l
b11111111111111111111110110101111 b
b1001010000 Y
b1010000 s
b1010000 u
b1111 >
b1111 o
b1111 ,"
b1001010000 ("
b1001010000 D
b1001010000 `
b1001010000 '"
b1001010000 0"
b1001010000 p
b1111 #"
17
#175000
07
#180000
b1 E
b1 Q
b1 _
b1 =
b1 L
b1 1"
1<
1F
0k
b1 /"
b1 %"
b1 $"
b1 n
b1000000001 G
b1000000001 N
b1000000001 m
1W
0[
b1000000001 e
1V
0U
0h
b10010100001 j
b10010100001 f
b10010100001 l
b10010100001 b
b0 Y
b10100000 s
b10100000 u
b101 c
b10000 #"
b10010100000 ("
b10010100000 D
b10010100000 `
b10010100000 '"
b10010100000 0"
b10010100000 p
b10000 >
b10000 o
b10000 ,"
b1010000000000000000001000000001 B
b1010000000000000000001000000001 d
b1010000000000000000001000000001 ."
17
#185000
07
#190000
b0 E
b0 Q
b0 _
b0 =
b0 L
b0 1"
b1100 /"
b10111100 %"
b10111100 $"
1A
0<
0X
b0 n
b1010111100 G
b1010111100 N
b1010111100 m
0W
b1010111100 e
0V
1*"
1C
1a
b0 j
b10010100001 f
b10010100001 l
b10010100001 b
b0 Y
b10100001 s
b10100001 u
b1001 c
b10001 >
b10001 o
b10001 ,"
b10010100001 ("
b10010100001 D
b10010100001 `
b10010100001 '"
b10010100001 0"
b10010100001 p
b10001 #"
b10010000000000000000001010111100 B
b10010000000000000000001010111100 d
b10010000000000000000001010111100 ."
17
#195000
07
#200000
0F
b0 E
b0 Q
b0 _
b1 /"
b10001 %"
b10001 $"
0&"
0?
0A
1Z
b11111001 3
b11111001 J
b11111001 !"
b10001 G
b10001 N
b10001 m
b1 z
b10001 e
0*"
0C
0a
b101100001 {
b1000 ""
b1100 c
b10100001 |
b0 #"
b10010 >
b10010 o
b10010 ,"
b11000000000000000000000000010001 B
b11000000000000000000000000010001 d
b11000000000000000000000000010001 ."
17
#205000
07
#210000
b0 /"
b0 %"
b0 $"
0Z
b10010100000 j
1X
b0 G
b0 N
b0 m
1T
1[
b0 e
1U
b10010100000 f
b10010100000 l
b10010100000 b
b10100000 s
b10100000 u
b0 c
b10011 >
b10011 o
b10011 ,"
b10010100000 ("
b10010100000 D
b10010100000 `
b10010100000 '"
b10010100000 0"
b10010100000 p
b1 #"
b0 B
b0 d
b0 ."
17
#215000
07
#220000
b10 #"
b10100 >
b10100 o
b10100 ,"
17
#225000
07
#230000
b10101 >
b10101 o
b10101 ,"
b11 #"
17
#235000
07
#240000
b100 #"
b10110 >
b10110 o
b10110 ,"
17
#245000
07
#250000
b10111 >
b10111 o
b10111 ,"
b101 #"
17
#255000
07
#260000
b110 #"
b11000 >
b11000 o
b11000 ,"
17
#265000
07
#270000
b11001 >
b11001 o
b11001 ,"
b111 #"
17
#275000
07
#280000
b1000 #"
b11010 >
b11010 o
b11010 ,"
17
#285000
07
#290000
b11011 >
b11011 o
b11011 ,"
b1001 #"
17
#295000
07
#300000
b1010 #"
b11100 >
b11100 o
b11100 ,"
17
#305000
07
#310000
b11101 >
b11101 o
b11101 ,"
b1011 #"
17
#315000
07
#320000
b1100 #"
b11110 >
b11110 o
b11110 ,"
17
#325000
07
#330000
b11111 >
b11111 o
b11111 ,"
b1101 #"
17
#335000
07
#340000
b1110 #"
b100000 >
b100000 o
b100000 ,"
17
#345000
07
#350000
b100001 >
b100001 o
b100001 ,"
b1111 #"
17
#355000
07
#360000
b10000 #"
b100010 >
b100010 o
b100010 ,"
17
#365000
07
#370000
b100011 >
b100011 o
b100011 ,"
b10001 #"
17
#375000
07
#380000
b10010 #"
b100100 >
b100100 o
b100100 ,"
17
#385000
07
#390000
b100101 >
b100101 o
b100101 ,"
b10011 #"
17
#395000
07
#400000
b10100 #"
b100110 >
b100110 o
b100110 ,"
17
#405000
07
#410000
b100111 >
b100111 o
b100111 ,"
b10101 #"
17
#415000
07
#420000
b10110 #"
b101000 >
b101000 o
b101000 ,"
17
#425000
07
#430000
b101001 >
b101001 o
b101001 ,"
b10111 #"
17
#435000
07
#440000
b11000 #"
b101010 >
b101010 o
b101010 ,"
17
#445000
07
#450000
b101011 >
b101011 o
b101011 ,"
b11001 #"
17
#455000
07
#460000
b11010 #"
b101100 >
b101100 o
b101100 ,"
17
#465000
07
#470000
b101101 >
b101101 o
b101101 ,"
b11011 #"
17
#475000
07
#480000
b11100 #"
b101110 >
b101110 o
b101110 ,"
17
#485000
07
#490000
b101111 >
b101111 o
b101111 ,"
b11101 #"
17
#495000
07
#500000
b11110 #"
b110000 >
b110000 o
b110000 ,"
17
#505000
07
#510000
b110001 >
b110001 o
b110001 ,"
b11111 #"
17
#515000
07
#520000
b100000 #"
b110010 >
b110010 o
b110010 ,"
17
#525000
07
#530000
b110011 >
b110011 o
b110011 ,"
b100001 #"
17
#535000
07
#540000
b100010 #"
b110100 >
b110100 o
b110100 ,"
17
#545000
07
#550000
b110101 >
b110101 o
b110101 ,"
b100011 #"
17
#555000
07
#560000
b100100 #"
b110110 >
b110110 o
b110110 ,"
17
#565000
07
#570000
b110111 >
b110111 o
b110111 ,"
b100101 #"
17
